{
  "coc-python|global": {
    "INTERPRETERS_CACHE_v3_CondaEnvFileService": [],
    "INTERPRETERS_CACHE_v3_CondaEnvService": [],
    "INTERPRETERS_CACHE_v3_VirtualEnvService": [],
    "/usr/sbin/python3.v3": {
      "data": {
        "architecture": 3,
        "path": "/usr/sbin/python3",
        "version": {
          "options": {
            "loose": false,
            "includePrerelease": false
          },
          "loose": false,
          "raw": "3.9.6-final",
          "major": 3,
          "minor": 9,
          "patch": 6,
          "prerelease": [
            "final"
          ],
          "build": [],
          "version": "3.9.6-final"
        },
        "sysPrefix": "/usr",
        "fileHash": "891c39843769b5adf9fd42de7268fbfbb4167446445abeddf1ca3ea00f7ab356285f47766a8c614e8a2e5fc5557051373f9e8547948e3db03d213380de4b0c40"
      },
      "expiry": 1630627672206
    },
    "/usr/sbin/python.v3": {
      "data": {
        "architecture": 3,
        "path": "/usr/sbin/python",
        "version": {
          "options": {
            "loose": false,
            "includePrerelease": false
          },
          "loose": false,
          "raw": "3.9.6-final",
          "major": 3,
          "minor": 9,
          "patch": 6,
          "prerelease": [
            "final"
          ],
          "build": [],
          "version": "3.9.6-final"
        },
        "sysPrefix": "/usr",
        "fileHash": "891c39843769b5adf9fd42de7268fbfbb4167446445abeddf1ca3ea00f7ab356285f47766a8c614e8a2e5fc5557051373f9e8547948e3db03d213380de4b0c40"
      },
      "expiry": 1630627672211
    },
    "/bin/python3.8.v3": {
      "data": {
        "architecture": 3,
        "path": "/bin/python3.8",
        "version": {
          "options": {
            "loose": false,
            "includePrerelease": false
          },
          "loose": false,
          "raw": "3.8.6-final",
          "major": 3,
          "minor": 8,
          "patch": 6,
          "prerelease": [
            "final"
          ],
          "build": [],
          "version": "3.8.6-final"
        },
        "sysPrefix": "/usr",
        "fileHash": "c57858455485c5a225558252d420b64e7d4e91ba51fa3d14b7f053ac05ffd3009417ea65b33db1023319121011e33f5805bed975bff82344c33b9e41bcdf3baa"
      },
      "expiry": 1609399204897
    },
    "/bin/python3.v3": {
      "data": {
        "architecture": 3,
        "path": "/bin/python3",
        "version": {
          "options": {
            "loose": false,
            "includePrerelease": false
          },
          "loose": false,
          "raw": "3.9.6-final",
          "major": 3,
          "minor": 9,
          "patch": 6,
          "prerelease": [
            "final"
          ],
          "build": [],
          "version": "3.9.6-final"
        },
        "sysPrefix": "/usr",
        "fileHash": "891c39843769b5adf9fd42de7268fbfbb4167446445abeddf1ca3ea00f7ab356285f47766a8c614e8a2e5fc5557051373f9e8547948e3db03d213380de4b0c40"
      },
      "expiry": 1630627672235
    },
    "/bin/python.v3": {
      "data": {
        "architecture": 3,
        "path": "/bin/python",
        "version": {
          "options": {
            "loose": false,
            "includePrerelease": false
          },
          "loose": false,
          "raw": "3.9.6-final",
          "major": 3,
          "minor": 9,
          "patch": 6,
          "prerelease": [
            "final"
          ],
          "build": [],
          "version": "3.9.6-final"
        },
        "sysPrefix": "/usr",
        "fileHash": "891c39843769b5adf9fd42de7268fbfbb4167446445abeddf1ca3ea00f7ab356285f47766a8c614e8a2e5fc5557051373f9e8547948e3db03d213380de4b0c40"
      },
      "expiry": 1630627672240
    },
    "/usr/bin/python3.8.v3": {
      "data": {
        "architecture": 3,
        "path": "/usr/bin/python3.8",
        "version": {
          "options": {
            "loose": false,
            "includePrerelease": false
          },
          "loose": false,
          "raw": "3.8.6-final",
          "major": 3,
          "minor": 8,
          "patch": 6,
          "prerelease": [
            "final"
          ],
          "build": [],
          "version": "3.8.6-final"
        },
        "sysPrefix": "/usr",
        "fileHash": "c57858455485c5a225558252d420b64e7d4e91ba51fa3d14b7f053ac05ffd3009417ea65b33db1023319121011e33f5805bed975bff82344c33b9e41bcdf3baa"
      },
      "expiry": 1609399204904
    },
    "/usr/bin/python3.v3": {
      "data": {
        "architecture": 3,
        "path": "/usr/bin/python3",
        "version": {
          "options": {
            "loose": false,
            "includePrerelease": false
          },
          "loose": false,
          "raw": "3.9.6-final",
          "major": 3,
          "minor": 9,
          "patch": 6,
          "prerelease": [
            "final"
          ],
          "build": [],
          "version": "3.9.6-final"
        },
        "sysPrefix": "/usr",
        "fileHash": "891c39843769b5adf9fd42de7268fbfbb4167446445abeddf1ca3ea00f7ab356285f47766a8c614e8a2e5fc5557051373f9e8547948e3db03d213380de4b0c40"
      },
      "expiry": 1630627672359
    },
    "/usr/bin/python.v3": {
      "data": {
        "architecture": 3,
        "path": "/usr/bin/python",
        "version": {
          "options": {
            "loose": false,
            "includePrerelease": false
          },
          "loose": false,
          "raw": "3.9.6-final",
          "major": 3,
          "minor": 9,
          "patch": 6,
          "prerelease": [
            "final"
          ],
          "build": [],
          "version": "3.9.6-final"
        },
        "sysPrefix": "/usr",
        "fileHash": "891c39843769b5adf9fd42de7268fbfbb4167446445abeddf1ca3ea00f7ab356285f47766a8c614e8a2e5fc5557051373f9e8547948e3db03d213380de4b0c40"
      },
      "expiry": 1630627672356
    },
    "INTERPRETERS_CACHE_v3_CurrentPathService": [
      {
        "architecture": 3,
        "path": "/usr/bin/python3",
        "version": {
          "options": {
            "loose": false,
            "includePrerelease": false
          },
          "loose": false,
          "raw": "3.9.6-final",
          "major": 3,
          "minor": 9,
          "patch": 6,
          "prerelease": [
            "final"
          ],
          "build": [],
          "version": "3.9.6-final"
        },
        "sysPrefix": "/usr",
        "fileHash": "891c39843769b5adf9fd42de7268fbfbb4167446445abeddf1ca3ea00f7ab356285f47766a8c614e8a2e5fc5557051373f9e8547948e3db03d213380de4b0c40",
        "type": "Unknown"
      },
      {
        "architecture": 3,
        "path": "/usr/bin/python2",
        "version": {
          "options": {
            "loose": false,
            "includePrerelease": false
          },
          "loose": false,
          "raw": "2.7.18-final",
          "major": 2,
          "minor": 7,
          "patch": 18,
          "prerelease": [
            "final"
          ],
          "build": [],
          "version": "2.7.18-final"
        },
        "sysPrefix": "/usr",
        "fileHash": "6cbe55aa445f62883cc9245f1217957b82de834dec71f230b3c7add4025e4527dbf0192bf6af9a3e329bf489dede1360755a4518f7e1ca4bac66daa900040f76",
        "type": "Unknown"
      },
      {
        "architecture": 3,
        "path": "/usr/bin/python",
        "version": {
          "options": {
            "loose": false,
            "includePrerelease": false
          },
          "loose": false,
          "raw": "3.9.6-final",
          "major": 3,
          "minor": 9,
          "patch": 6,
          "prerelease": [
            "final"
          ],
          "build": [],
          "version": "3.9.6-final"
        },
        "sysPrefix": "/usr",
        "fileHash": "891c39843769b5adf9fd42de7268fbfbb4167446445abeddf1ca3ea00f7ab356285f47766a8c614e8a2e5fc5557051373f9e8547948e3db03d213380de4b0c40",
        "type": "Unknown"
      },
      {
        "architecture": 3,
        "path": "/usr/bin/python",
        "version": {
          "options": {
            "loose": false,
            "includePrerelease": false
          },
          "loose": false,
          "raw": "3.9.6-final",
          "major": 3,
          "minor": 9,
          "patch": 6,
          "prerelease": [
            "final"
          ],
          "build": [],
          "version": "3.9.6-final"
        },
        "sysPrefix": "/usr",
        "fileHash": "891c39843769b5adf9fd42de7268fbfbb4167446445abeddf1ca3ea00f7ab356285f47766a8c614e8a2e5fc5557051373f9e8547948e3db03d213380de4b0c40",
        "type": "Unknown"
      }
    ],
    "/sbin/python3.8.v3": {
      "data": {
        "architecture": 3,
        "path": "/sbin/python3.8",
        "version": {
          "options": {
            "loose": false,
            "includePrerelease": false
          },
          "loose": false,
          "raw": "3.8.6-final",
          "major": 3,
          "minor": 8,
          "patch": 6,
          "prerelease": [
            "final"
          ],
          "build": [],
          "version": "3.8.6-final"
        },
        "sysPrefix": "/usr",
        "fileHash": "c57858455485c5a225558252d420b64e7d4e91ba51fa3d14b7f053ac05ffd3009417ea65b33db1023319121011e33f5805bed975bff82344c33b9e41bcdf3baa"
      },
      "expiry": 1609399204927
    },
    "/sbin/python3.v3": {
      "data": {
        "architecture": 3,
        "path": "/sbin/python3",
        "version": {
          "options": {
            "loose": false,
            "includePrerelease": false
          },
          "loose": false,
          "raw": "3.9.6-final",
          "major": 3,
          "minor": 9,
          "patch": 6,
          "prerelease": [
            "final"
          ],
          "build": [],
          "version": "3.9.6-final"
        },
        "sysPrefix": "/usr",
        "fileHash": "891c39843769b5adf9fd42de7268fbfbb4167446445abeddf1ca3ea00f7ab356285f47766a8c614e8a2e5fc5557051373f9e8547948e3db03d213380de4b0c40"
      },
      "expiry": 1630627672193
    },
    "/sbin/python.v3": {
      "data": {
        "architecture": 3,
        "path": "/sbin/python",
        "version": {
          "options": {
            "loose": false,
            "includePrerelease": false
          },
          "loose": false,
          "raw": "3.9.6-final",
          "major": 3,
          "minor": 9,
          "patch": 6,
          "prerelease": [
            "final"
          ],
          "build": [],
          "version": "3.9.6-final"
        },
        "sysPrefix": "/usr",
        "fileHash": "891c39843769b5adf9fd42de7268fbfbb4167446445abeddf1ca3ea00f7ab356285f47766a8c614e8a2e5fc5557051373f9e8547948e3db03d213380de4b0c40"
      },
      "expiry": 1630627672201
    },
    "/usr/sbin/python3.8.v3": {
      "data": {
        "architecture": 3,
        "path": "/usr/sbin/python3.8",
        "version": {
          "options": {
            "loose": false,
            "includePrerelease": false
          },
          "loose": false,
          "raw": "3.8.6-final",
          "major": 3,
          "minor": 8,
          "patch": 6,
          "prerelease": [
            "final"
          ],
          "build": [],
          "version": "3.8.6-final"
        },
        "sysPrefix": "/usr",
        "fileHash": "c57858455485c5a225558252d420b64e7d4e91ba51fa3d14b7f053ac05ffd3009417ea65b33db1023319121011e33f5805bed975bff82344c33b9e41bcdf3baa"
      },
      "expiry": 1609399204876
    },
    "INTERPRETERS_CACHE_v3_KnownPathsService": [
      {
        "architecture": 3,
        "path": "/usr/bin/python",
        "version": {
          "options": {
            "loose": false,
            "includePrerelease": false
          },
          "loose": false,
          "raw": "3.9.6-final",
          "major": 3,
          "minor": 9,
          "patch": 6,
          "prerelease": [
            "final"
          ],
          "build": [],
          "version": "3.9.6-final"
        },
        "sysPrefix": "/usr",
        "fileHash": "891c39843769b5adf9fd42de7268fbfbb4167446445abeddf1ca3ea00f7ab356285f47766a8c614e8a2e5fc5557051373f9e8547948e3db03d213380de4b0c40",
        "type": "Unknown"
      },
      {
        "architecture": 3,
        "path": "/usr/bin/python2",
        "version": {
          "options": {
            "loose": false,
            "includePrerelease": false
          },
          "loose": false,
          "raw": "2.7.18-final",
          "major": 2,
          "minor": 7,
          "patch": 18,
          "prerelease": [
            "final"
          ],
          "build": [],
          "version": "2.7.18-final"
        },
        "sysPrefix": "/usr",
        "fileHash": "6cbe55aa445f62883cc9245f1217957b82de834dec71f230b3c7add4025e4527dbf0192bf6af9a3e329bf489dede1360755a4518f7e1ca4bac66daa900040f76",
        "type": "Unknown"
      },
      {
        "architecture": 3,
        "path": "/usr/bin/python2.7",
        "version": {
          "options": {
            "loose": false,
            "includePrerelease": false
          },
          "loose": false,
          "raw": "2.7.18-final",
          "major": 2,
          "minor": 7,
          "patch": 18,
          "prerelease": [
            "final"
          ],
          "build": [],
          "version": "2.7.18-final"
        },
        "sysPrefix": "/usr",
        "fileHash": "6cbe55aa445f62883cc9245f1217957b82de834dec71f230b3c7add4025e4527dbf0192bf6af9a3e329bf489dede1360755a4518f7e1ca4bac66daa900040f76",
        "type": "Unknown"
      },
      {
        "architecture": 3,
        "path": "/usr/bin/python3",
        "version": {
          "options": {
            "loose": false,
            "includePrerelease": false
          },
          "loose": false,
          "raw": "3.9.6-final",
          "major": 3,
          "minor": 9,
          "patch": 6,
          "prerelease": [
            "final"
          ],
          "build": [],
          "version": "3.9.6-final"
        },
        "sysPrefix": "/usr",
        "fileHash": "891c39843769b5adf9fd42de7268fbfbb4167446445abeddf1ca3ea00f7ab356285f47766a8c614e8a2e5fc5557051373f9e8547948e3db03d213380de4b0c40",
        "type": "Unknown"
      },
      {
        "architecture": 3,
        "path": "/usr/bin/python3.9",
        "version": {
          "options": {
            "loose": false,
            "includePrerelease": false
          },
          "loose": false,
          "raw": "3.9.6-final",
          "major": 3,
          "minor": 9,
          "patch": 6,
          "prerelease": [
            "final"
          ],
          "build": [],
          "version": "3.9.6-final"
        },
        "sysPrefix": "/usr",
        "fileHash": "fb930abca3d3e41a46b99df8d6c71e6e5f51db51fcd74daf8d087344d0aba9be92079eb919f40169bdb9ae96ebff4c9cecce9eba8ed615e6f196371ccca5db40",
        "type": "Unknown"
      },
      {
        "architecture": 3,
        "path": "/bin/python",
        "version": {
          "options": {
            "loose": false,
            "includePrerelease": false
          },
          "loose": false,
          "raw": "3.9.6-final",
          "major": 3,
          "minor": 9,
          "patch": 6,
          "prerelease": [
            "final"
          ],
          "build": [],
          "version": "3.9.6-final"
        },
        "sysPrefix": "/usr",
        "fileHash": "891c39843769b5adf9fd42de7268fbfbb4167446445abeddf1ca3ea00f7ab356285f47766a8c614e8a2e5fc5557051373f9e8547948e3db03d213380de4b0c40",
        "type": "Unknown"
      },
      {
        "architecture": 3,
        "path": "/bin/python2",
        "version": {
          "options": {
            "loose": false,
            "includePrerelease": false
          },
          "loose": false,
          "raw": "2.7.18-final",
          "major": 2,
          "minor": 7,
          "patch": 18,
          "prerelease": [
            "final"
          ],
          "build": [],
          "version": "2.7.18-final"
        },
        "sysPrefix": "/usr",
        "fileHash": "6cbe55aa445f62883cc9245f1217957b82de834dec71f230b3c7add4025e4527dbf0192bf6af9a3e329bf489dede1360755a4518f7e1ca4bac66daa900040f76",
        "type": "Unknown"
      },
      {
        "architecture": 3,
        "path": "/bin/python2.7",
        "version": {
          "options": {
            "loose": false,
            "includePrerelease": false
          },
          "loose": false,
          "raw": "2.7.18-final",
          "major": 2,
          "minor": 7,
          "patch": 18,
          "prerelease": [
            "final"
          ],
          "build": [],
          "version": "2.7.18-final"
        },
        "sysPrefix": "/usr",
        "fileHash": "6cbe55aa445f62883cc9245f1217957b82de834dec71f230b3c7add4025e4527dbf0192bf6af9a3e329bf489dede1360755a4518f7e1ca4bac66daa900040f76",
        "type": "Unknown"
      },
      {
        "architecture": 3,
        "path": "/bin/python3",
        "version": {
          "options": {
            "loose": false,
            "includePrerelease": false
          },
          "loose": false,
          "raw": "3.9.6-final",
          "major": 3,
          "minor": 9,
          "patch": 6,
          "prerelease": [
            "final"
          ],
          "build": [],
          "version": "3.9.6-final"
        },
        "sysPrefix": "/usr",
        "fileHash": "891c39843769b5adf9fd42de7268fbfbb4167446445abeddf1ca3ea00f7ab356285f47766a8c614e8a2e5fc5557051373f9e8547948e3db03d213380de4b0c40",
        "type": "Unknown"
      },
      {
        "architecture": 3,
        "path": "/bin/python3.9",
        "version": {
          "options": {
            "loose": false,
            "includePrerelease": false
          },
          "loose": false,
          "raw": "3.9.6-final",
          "major": 3,
          "minor": 9,
          "patch": 6,
          "prerelease": [
            "final"
          ],
          "build": [],
          "version": "3.9.6-final"
        },
        "sysPrefix": "/usr",
        "fileHash": "fb930abca3d3e41a46b99df8d6c71e6e5f51db51fcd74daf8d087344d0aba9be92079eb919f40169bdb9ae96ebff4c9cecce9eba8ed615e6f196371ccca5db40",
        "type": "Unknown"
      },
      {
        "architecture": 3,
        "path": "/usr/bin/python",
        "version": {
          "options": {
            "loose": false,
            "includePrerelease": false
          },
          "loose": false,
          "raw": "3.9.6-final",
          "major": 3,
          "minor": 9,
          "patch": 6,
          "prerelease": [
            "final"
          ],
          "build": [],
          "version": "3.9.6-final"
        },
        "sysPrefix": "/usr",
        "fileHash": "891c39843769b5adf9fd42de7268fbfbb4167446445abeddf1ca3ea00f7ab356285f47766a8c614e8a2e5fc5557051373f9e8547948e3db03d213380de4b0c40",
        "type": "Unknown"
      },
      {
        "architecture": 3,
        "path": "/usr/bin/python2",
        "version": {
          "options": {
            "loose": false,
            "includePrerelease": false
          },
          "loose": false,
          "raw": "2.7.18-final",
          "major": 2,
          "minor": 7,
          "patch": 18,
          "prerelease": [
            "final"
          ],
          "build": [],
          "version": "2.7.18-final"
        },
        "sysPrefix": "/usr",
        "fileHash": "6cbe55aa445f62883cc9245f1217957b82de834dec71f230b3c7add4025e4527dbf0192bf6af9a3e329bf489dede1360755a4518f7e1ca4bac66daa900040f76",
        "type": "Unknown"
      },
      {
        "architecture": 3,
        "path": "/usr/bin/python2.7",
        "version": {
          "options": {
            "loose": false,
            "includePrerelease": false
          },
          "loose": false,
          "raw": "2.7.18-final",
          "major": 2,
          "minor": 7,
          "patch": 18,
          "prerelease": [
            "final"
          ],
          "build": [],
          "version": "2.7.18-final"
        },
        "sysPrefix": "/usr",
        "fileHash": "6cbe55aa445f62883cc9245f1217957b82de834dec71f230b3c7add4025e4527dbf0192bf6af9a3e329bf489dede1360755a4518f7e1ca4bac66daa900040f76",
        "type": "Unknown"
      },
      {
        "architecture": 3,
        "path": "/usr/bin/python3",
        "version": {
          "options": {
            "loose": false,
            "includePrerelease": false
          },
          "loose": false,
          "raw": "3.9.6-final",
          "major": 3,
          "minor": 9,
          "patch": 6,
          "prerelease": [
            "final"
          ],
          "build": [],
          "version": "3.9.6-final"
        },
        "sysPrefix": "/usr",
        "fileHash": "891c39843769b5adf9fd42de7268fbfbb4167446445abeddf1ca3ea00f7ab356285f47766a8c614e8a2e5fc5557051373f9e8547948e3db03d213380de4b0c40",
        "type": "Unknown"
      },
      {
        "architecture": 3,
        "path": "/usr/bin/python3.9",
        "version": {
          "options": {
            "loose": false,
            "includePrerelease": false
          },
          "loose": false,
          "raw": "3.9.6-final",
          "major": 3,
          "minor": 9,
          "patch": 6,
          "prerelease": [
            "final"
          ],
          "build": [],
          "version": "3.9.6-final"
        },
        "sysPrefix": "/usr",
        "fileHash": "fb930abca3d3e41a46b99df8d6c71e6e5f51db51fcd74daf8d087344d0aba9be92079eb919f40169bdb9ae96ebff4c9cecce9eba8ed615e6f196371ccca5db40",
        "type": "Unknown"
      },
      {
        "architecture": 3,
        "path": "/bin/python",
        "version": {
          "options": {
            "loose": false,
            "includePrerelease": false
          },
          "loose": false,
          "raw": "3.9.6-final",
          "major": 3,
          "minor": 9,
          "patch": 6,
          "prerelease": [
            "final"
          ],
          "build": [],
          "version": "3.9.6-final"
        },
        "sysPrefix": "/usr",
        "fileHash": "891c39843769b5adf9fd42de7268fbfbb4167446445abeddf1ca3ea00f7ab356285f47766a8c614e8a2e5fc5557051373f9e8547948e3db03d213380de4b0c40",
        "type": "Unknown"
      },
      {
        "architecture": 3,
        "path": "/bin/python2",
        "version": {
          "options": {
            "loose": false,
            "includePrerelease": false
          },
          "loose": false,
          "raw": "2.7.18-final",
          "major": 2,
          "minor": 7,
          "patch": 18,
          "prerelease": [
            "final"
          ],
          "build": [],
          "version": "2.7.18-final"
        },
        "sysPrefix": "/usr",
        "fileHash": "6cbe55aa445f62883cc9245f1217957b82de834dec71f230b3c7add4025e4527dbf0192bf6af9a3e329bf489dede1360755a4518f7e1ca4bac66daa900040f76",
        "type": "Unknown"
      },
      {
        "architecture": 3,
        "path": "/bin/python2.7",
        "version": {
          "options": {
            "loose": false,
            "includePrerelease": false
          },
          "loose": false,
          "raw": "2.7.18-final",
          "major": 2,
          "minor": 7,
          "patch": 18,
          "prerelease": [
            "final"
          ],
          "build": [],
          "version": "2.7.18-final"
        },
        "sysPrefix": "/usr",
        "fileHash": "6cbe55aa445f62883cc9245f1217957b82de834dec71f230b3c7add4025e4527dbf0192bf6af9a3e329bf489dede1360755a4518f7e1ca4bac66daa900040f76",
        "type": "Unknown"
      },
      {
        "architecture": 3,
        "path": "/bin/python3",
        "version": {
          "options": {
            "loose": false,
            "includePrerelease": false
          },
          "loose": false,
          "raw": "3.9.6-final",
          "major": 3,
          "minor": 9,
          "patch": 6,
          "prerelease": [
            "final"
          ],
          "build": [],
          "version": "3.9.6-final"
        },
        "sysPrefix": "/usr",
        "fileHash": "891c39843769b5adf9fd42de7268fbfbb4167446445abeddf1ca3ea00f7ab356285f47766a8c614e8a2e5fc5557051373f9e8547948e3db03d213380de4b0c40",
        "type": "Unknown"
      },
      {
        "architecture": 3,
        "path": "/bin/python3.9",
        "version": {
          "options": {
            "loose": false,
            "includePrerelease": false
          },
          "loose": false,
          "raw": "3.9.6-final",
          "major": 3,
          "minor": 9,
          "patch": 6,
          "prerelease": [
            "final"
          ],
          "build": [],
          "version": "3.9.6-final"
        },
        "sysPrefix": "/usr",
        "fileHash": "fb930abca3d3e41a46b99df8d6c71e6e5f51db51fcd74daf8d087344d0aba9be92079eb919f40169bdb9ae96ebff4c9cecce9eba8ed615e6f196371ccca5db40",
        "type": "Unknown"
      },
      {
        "architecture": 3,
        "path": "/usr/sbin/python",
        "version": {
          "options": {
            "loose": false,
            "includePrerelease": false
          },
          "loose": false,
          "raw": "3.9.6-final",
          "major": 3,
          "minor": 9,
          "patch": 6,
          "prerelease": [
            "final"
          ],
          "build": [],
          "version": "3.9.6-final"
        },
        "sysPrefix": "/usr",
        "fileHash": "891c39843769b5adf9fd42de7268fbfbb4167446445abeddf1ca3ea00f7ab356285f47766a8c614e8a2e5fc5557051373f9e8547948e3db03d213380de4b0c40",
        "type": "Unknown"
      },
      {
        "architecture": 3,
        "path": "/usr/sbin/python2",
        "version": {
          "options": {
            "loose": false,
            "includePrerelease": false
          },
          "loose": false,
          "raw": "2.7.18-final",
          "major": 2,
          "minor": 7,
          "patch": 18,
          "prerelease": [
            "final"
          ],
          "build": [],
          "version": "2.7.18-final"
        },
        "sysPrefix": "/usr",
        "fileHash": "6cbe55aa445f62883cc9245f1217957b82de834dec71f230b3c7add4025e4527dbf0192bf6af9a3e329bf489dede1360755a4518f7e1ca4bac66daa900040f76",
        "type": "Unknown"
      },
      {
        "architecture": 3,
        "path": "/usr/sbin/python2.7",
        "version": {
          "options": {
            "loose": false,
            "includePrerelease": false
          },
          "loose": false,
          "raw": "2.7.18-final",
          "major": 2,
          "minor": 7,
          "patch": 18,
          "prerelease": [
            "final"
          ],
          "build": [],
          "version": "2.7.18-final"
        },
        "sysPrefix": "/usr",
        "fileHash": "6cbe55aa445f62883cc9245f1217957b82de834dec71f230b3c7add4025e4527dbf0192bf6af9a3e329bf489dede1360755a4518f7e1ca4bac66daa900040f76",
        "type": "Unknown"
      },
      {
        "architecture": 3,
        "path": "/usr/sbin/python3",
        "version": {
          "options": {
            "loose": false,
            "includePrerelease": false
          },
          "loose": false,
          "raw": "3.9.6-final",
          "major": 3,
          "minor": 9,
          "patch": 6,
          "prerelease": [
            "final"
          ],
          "build": [],
          "version": "3.9.6-final"
        },
        "sysPrefix": "/usr",
        "fileHash": "891c39843769b5adf9fd42de7268fbfbb4167446445abeddf1ca3ea00f7ab356285f47766a8c614e8a2e5fc5557051373f9e8547948e3db03d213380de4b0c40",
        "type": "Unknown"
      },
      {
        "architecture": 3,
        "path": "/usr/sbin/python3.9",
        "version": {
          "options": {
            "loose": false,
            "includePrerelease": false
          },
          "loose": false,
          "raw": "3.9.6-final",
          "major": 3,
          "minor": 9,
          "patch": 6,
          "prerelease": [
            "final"
          ],
          "build": [],
          "version": "3.9.6-final"
        },
        "sysPrefix": "/usr",
        "fileHash": "fb930abca3d3e41a46b99df8d6c71e6e5f51db51fcd74daf8d087344d0aba9be92079eb919f40169bdb9ae96ebff4c9cecce9eba8ed615e6f196371ccca5db40",
        "type": "Unknown"
      },
      {
        "architecture": 3,
        "path": "/sbin/python",
        "version": {
          "options": {
            "loose": false,
            "includePrerelease": false
          },
          "loose": false,
          "raw": "3.9.6-final",
          "major": 3,
          "minor": 9,
          "patch": 6,
          "prerelease": [
            "final"
          ],
          "build": [],
          "version": "3.9.6-final"
        },
        "sysPrefix": "/usr",
        "fileHash": "891c39843769b5adf9fd42de7268fbfbb4167446445abeddf1ca3ea00f7ab356285f47766a8c614e8a2e5fc5557051373f9e8547948e3db03d213380de4b0c40",
        "type": "Unknown"
      },
      {
        "architecture": 3,
        "path": "/sbin/python2",
        "version": {
          "options": {
            "loose": false,
            "includePrerelease": false
          },
          "loose": false,
          "raw": "2.7.18-final",
          "major": 2,
          "minor": 7,
          "patch": 18,
          "prerelease": [
            "final"
          ],
          "build": [],
          "version": "2.7.18-final"
        },
        "sysPrefix": "/usr",
        "fileHash": "6cbe55aa445f62883cc9245f1217957b82de834dec71f230b3c7add4025e4527dbf0192bf6af9a3e329bf489dede1360755a4518f7e1ca4bac66daa900040f76",
        "type": "Unknown"
      },
      {
        "architecture": 3,
        "path": "/sbin/python2.7",
        "version": {
          "options": {
            "loose": false,
            "includePrerelease": false
          },
          "loose": false,
          "raw": "2.7.18-final",
          "major": 2,
          "minor": 7,
          "patch": 18,
          "prerelease": [
            "final"
          ],
          "build": [],
          "version": "2.7.18-final"
        },
        "sysPrefix": "/usr",
        "fileHash": "6cbe55aa445f62883cc9245f1217957b82de834dec71f230b3c7add4025e4527dbf0192bf6af9a3e329bf489dede1360755a4518f7e1ca4bac66daa900040f76",
        "type": "Unknown"
      },
      {
        "architecture": 3,
        "path": "/sbin/python3",
        "version": {
          "options": {
            "loose": false,
            "includePrerelease": false
          },
          "loose": false,
          "raw": "3.9.6-final",
          "major": 3,
          "minor": 9,
          "patch": 6,
          "prerelease": [
            "final"
          ],
          "build": [],
          "version": "3.9.6-final"
        },
        "sysPrefix": "/usr",
        "fileHash": "891c39843769b5adf9fd42de7268fbfbb4167446445abeddf1ca3ea00f7ab356285f47766a8c614e8a2e5fc5557051373f9e8547948e3db03d213380de4b0c40",
        "type": "Unknown"
      },
      {
        "architecture": 3,
        "path": "/sbin/python3.9",
        "version": {
          "options": {
            "loose": false,
            "includePrerelease": false
          },
          "loose": false,
          "raw": "3.9.6-final",
          "major": 3,
          "minor": 9,
          "patch": 6,
          "prerelease": [
            "final"
          ],
          "build": [],
          "version": "3.9.6-final"
        },
        "sysPrefix": "/usr",
        "fileHash": "fb930abca3d3e41a46b99df8d6c71e6e5f51db51fcd74daf8d087344d0aba9be92079eb919f40169bdb9ae96ebff4c9cecce9eba8ed615e6f196371ccca5db40",
        "type": "Unknown"
      }
    ],
    "PipEnvInformation": [],
    "InterpreterAutoSeletionRule-currentPath": {
      "architecture": 3,
      "path": "/usr/bin/python",
      "version": {
        "options": {
          "loose": false,
          "includePrerelease": false
        },
        "loose": false,
        "raw": "3.9.6-final",
        "major": 3,
        "minor": 9,
        "patch": 6,
        "prerelease": [
          "final"
        ],
        "build": [],
        "version": "3.9.6-final"
      },
      "sysPrefix": "/usr",
      "fileHash": "891c39843769b5adf9fd42de7268fbfbb4167446445abeddf1ca3ea00f7ab356285f47766a8c614e8a2e5fc5557051373f9e8547948e3db03d213380de4b0c40",
      "type": "Unknown"
    },
    "preferredGlobalPyInterpreter": {
      "architecture": 3,
      "path": "/sbin/python",
      "version": {
        "options": {
          "loose": false,
          "includePrerelease": false
        },
        "loose": false,
        "raw": "3.9.6-final",
        "major": 3,
        "minor": 9,
        "patch": 6,
        "prerelease": [
          "final"
        ],
        "build": [],
        "version": "3.9.6-final"
      },
      "sysPrefix": "/usr",
      "fileHash": "891c39843769b5adf9fd42de7268fbfbb4167446445abeddf1ca3ea00f7ab356285f47766a8c614e8a2e5fc5557051373f9e8547948e3db03d213380de4b0c40",
      "type": "Unknown",
      "displayName": "Python 3.9.6 64-bit"
    },
    "/usr/bin/python.interpreter.displayName.v7": {
      "data": {
        "displayName": "Python 3.9.6 64-bit",
        "hash": "891c39843769b5adf9fd42de7268fbfbb4167446445abeddf1ca3ea00f7ab356285f47766a8c614e8a2e5fc5557051373f9e8547948e3db03d213380de4b0c40-84d0f7d33619b4caa857f86a14ffb500"
      },
      "expiry": 1630630923662
    },
    "/bin/python.interpreter.displayName.v7": {
      "data": {
        "displayName": "Python 3.9.6 64-bit",
        "hash": "891c39843769b5adf9fd42de7268fbfbb4167446445abeddf1ca3ea00f7ab356285f47766a8c614e8a2e5fc5557051373f9e8547948e3db03d213380de4b0c40-cf2f0c791dd2e1a1c62767b4ca8f456d"
      },
      "expiry": 1630630923467
    },
    "/usr/sbin/python.interpreter.displayName.v7": {
      "data": {
        "displayName": "Python 3.9.6 64-bit",
        "hash": "891c39843769b5adf9fd42de7268fbfbb4167446445abeddf1ca3ea00f7ab356285f47766a8c614e8a2e5fc5557051373f9e8547948e3db03d213380de4b0c40-4f879b36fd547b6e51dc95ba1712ceb7"
      },
      "expiry": 1630630923477
    },
    "/sbin/python.interpreter.displayName.v7": {
      "data": {
        "displayName": "Python 3.9.6 64-bit",
        "hash": "891c39843769b5adf9fd42de7268fbfbb4167446445abeddf1ca3ea00f7ab356285f47766a8c614e8a2e5fc5557051373f9e8547948e3db03d213380de4b0c40-bd0100b188f78dce5e7b0162343cb4db"
      },
      "expiry": 1630627672498
    },
    "InterpreterAutoSeletionRule-system": {
      "architecture": 3,
      "path": "/sbin/python",
      "version": {
        "options": {
          "loose": false,
          "includePrerelease": false
        },
        "loose": false,
        "raw": "3.9.6-final",
        "major": 3,
        "minor": 9,
        "patch": 6,
        "prerelease": [
          "final"
        ],
        "build": [],
        "version": "3.9.6-final"
      },
      "sysPrefix": "/usr",
      "fileHash": "891c39843769b5adf9fd42de7268fbfbb4167446445abeddf1ca3ea00f7ab356285f47766a8c614e8a2e5fc5557051373f9e8547948e3db03d213380de4b0c40",
      "type": "Unknown",
      "displayName": "Python 3.9.6 64-bit"
    },
    "/usr/bin/python.interpreter.Details.v7": {
      "data": {
        "fileHash": "891c39843769b5adf9fd42de7268fbfbb4167446445abeddf1ca3ea00f7ab356285f47766a8c614e8a2e5fc5557051373f9e8547948e3db03d213380de4b0c40",
        "info": {
          "architecture": 3,
          "path": "/usr/bin/python",
          "version": {
            "options": {
              "loose": false,
              "includePrerelease": false
            },
            "loose": false,
            "raw": "3.9.6-final",
            "major": 3,
            "minor": 9,
            "patch": 6,
            "prerelease": [
              "final"
            ],
            "build": [],
            "version": "3.9.6-final"
          },
          "sysPrefix": "/usr",
          "fileHash": "891c39843769b5adf9fd42de7268fbfbb4167446445abeddf1ca3ea00f7ab356285f47766a8c614e8a2e5fc5557051373f9e8547948e3db03d213380de4b0c40",
          "type": "Unknown",
          "displayName": "Python 3.9.6 64-bit",
          "__store": true
        }
      },
      "expiry": 1630630923569
    },
    "/bin/python.interpreter.Details.v7": {
      "data": {
        "fileHash": "891c39843769b5adf9fd42de7268fbfbb4167446445abeddf1ca3ea00f7ab356285f47766a8c614e8a2e5fc5557051373f9e8547948e3db03d213380de4b0c40",
        "info": {
          "architecture": 3,
          "path": "/bin/python",
          "version": {
            "options": {
              "loose": false,
              "includePrerelease": false
            },
            "loose": false,
            "raw": "3.9.6-final",
            "major": 3,
            "minor": 9,
            "patch": 6,
            "prerelease": [
              "final"
            ],
            "build": [],
            "version": "3.9.6-final"
          },
          "sysPrefix": "/usr",
          "fileHash": "891c39843769b5adf9fd42de7268fbfbb4167446445abeddf1ca3ea00f7ab356285f47766a8c614e8a2e5fc5557051373f9e8547948e3db03d213380de4b0c40",
          "type": "Unknown",
          "displayName": "Python 3.9.6 64-bit"
        }
      },
      "expiry": 1630630923525
    },
    "/usr/sbin/python.interpreter.Details.v7": {
      "data": {
        "fileHash": "891c39843769b5adf9fd42de7268fbfbb4167446445abeddf1ca3ea00f7ab356285f47766a8c614e8a2e5fc5557051373f9e8547948e3db03d213380de4b0c40",
        "info": {
          "architecture": 3,
          "path": "/usr/sbin/python",
          "version": {
            "options": {
              "loose": false,
              "includePrerelease": false
            },
            "loose": false,
            "raw": "3.9.6-final",
            "major": 3,
            "minor": 9,
            "patch": 6,
            "prerelease": [
              "final"
            ],
            "build": [],
            "version": "3.9.6-final"
          },
          "sysPrefix": "/usr",
          "fileHash": "891c39843769b5adf9fd42de7268fbfbb4167446445abeddf1ca3ea00f7ab356285f47766a8c614e8a2e5fc5557051373f9e8547948e3db03d213380de4b0c40",
          "type": "Unknown",
          "displayName": "Python 3.9.6 64-bit"
        }
      },
      "expiry": 1630630923537
    },
    "/sbin/python.interpreter.Details.v7": {
      "data": {
        "fileHash": "891c39843769b5adf9fd42de7268fbfbb4167446445abeddf1ca3ea00f7ab356285f47766a8c614e8a2e5fc5557051373f9e8547948e3db03d213380de4b0c40",
        "info": {
          "architecture": 3,
          "path": "/sbin/python",
          "version": {
            "options": {
              "loose": false,
              "includePrerelease": false
            },
            "loose": false,
            "raw": "3.9.6-final",
            "major": 3,
            "minor": 9,
            "patch": 6,
            "prerelease": [
              "final"
            ],
            "build": [],
            "version": "3.9.6-final"
          },
          "sysPrefix": "/usr",
          "fileHash": "891c39843769b5adf9fd42de7268fbfbb4167446445abeddf1ca3ea00f7ab356285f47766a8c614e8a2e5fc5557051373f9e8547948e3db03d213380de4b0c40",
          "type": "Unknown",
          "displayName": "Python 3.9.6 64-bit"
        }
      },
      "expiry": 1630630923545
    },
    "InterpreterAutoSeletionRule-cachedInterpreters": {
      "architecture": 3,
      "path": "/sbin/python",
      "version": {
        "options": {
          "loose": false,
          "includePrerelease": false
        },
        "loose": false,
        "raw": "3.9.6-final",
        "major": 3,
        "minor": 9,
        "patch": 6,
        "prerelease": [
          "final"
        ],
        "build": [],
        "version": "3.9.6-final"
      },
      "sysPrefix": "/usr",
      "fileHash": "891c39843769b5adf9fd42de7268fbfbb4167446445abeddf1ca3ea00f7ab356285f47766a8c614e8a2e5fc5557051373f9e8547948e3db03d213380de4b0c40",
      "type": "Unknown",
      "displayName": "Python 3.9.6 64-bit"
    },
    "ProposeLSBanner": false,
    "/sbin/python2.v3": {
      "data": {
        "architecture": 3,
        "path": "/sbin/python2",
        "version": {
          "options": {
            "loose": false,
            "includePrerelease": false
          },
          "loose": false,
          "raw": "2.7.18-final",
          "major": 2,
          "minor": 7,
          "patch": 18,
          "prerelease": [
            "final"
          ],
          "build": [],
          "version": "2.7.18-final"
        },
        "sysPrefix": "/usr",
        "fileHash": "6cbe55aa445f62883cc9245f1217957b82de834dec71f230b3c7add4025e4527dbf0192bf6af9a3e329bf489dede1360755a4518f7e1ca4bac66daa900040f76"
      },
      "expiry": 1630627672199
    },
    "/usr/sbin/python2.7.v3": {
      "data": {
        "architecture": 3,
        "path": "/usr/sbin/python2.7",
        "version": {
          "options": {
            "loose": false,
            "includePrerelease": false
          },
          "loose": false,
          "raw": "2.7.18-final",
          "major": 2,
          "minor": 7,
          "patch": 18,
          "prerelease": [
            "final"
          ],
          "build": [],
          "version": "2.7.18-final"
        },
        "sysPrefix": "/usr",
        "fileHash": "6cbe55aa445f62883cc9245f1217957b82de834dec71f230b3c7add4025e4527dbf0192bf6af9a3e329bf489dede1360755a4518f7e1ca4bac66daa900040f76"
      },
      "expiry": 1630627672208
    },
    "/usr/sbin/python2.v3": {
      "data": {
        "architecture": 3,
        "path": "/usr/sbin/python2",
        "version": {
          "options": {
            "loose": false,
            "includePrerelease": false
          },
          "loose": false,
          "raw": "2.7.18-final",
          "major": 2,
          "minor": 7,
          "patch": 18,
          "prerelease": [
            "final"
          ],
          "build": [],
          "version": "2.7.18-final"
        },
        "sysPrefix": "/usr",
        "fileHash": "6cbe55aa445f62883cc9245f1217957b82de834dec71f230b3c7add4025e4527dbf0192bf6af9a3e329bf489dede1360755a4518f7e1ca4bac66daa900040f76"
      },
      "expiry": 1630627672209
    },
    "/bin/python2.7.v3": {
      "data": {
        "architecture": 3,
        "path": "/bin/python2.7",
        "version": {
          "options": {
            "loose": false,
            "includePrerelease": false
          },
          "loose": false,
          "raw": "2.7.18-final",
          "major": 2,
          "minor": 7,
          "patch": 18,
          "prerelease": [
            "final"
          ],
          "build": [],
          "version": "2.7.18-final"
        },
        "sysPrefix": "/usr",
        "fileHash": "6cbe55aa445f62883cc9245f1217957b82de834dec71f230b3c7add4025e4527dbf0192bf6af9a3e329bf489dede1360755a4518f7e1ca4bac66daa900040f76"
      },
      "expiry": 1630627672237
    },
    "/bin/python2.v3": {
      "data": {
        "architecture": 3,
        "path": "/bin/python2",
        "version": {
          "options": {
            "loose": false,
            "includePrerelease": false
          },
          "loose": false,
          "raw": "2.7.18-final",
          "major": 2,
          "minor": 7,
          "patch": 18,
          "prerelease": [
            "final"
          ],
          "build": [],
          "version": "2.7.18-final"
        },
        "sysPrefix": "/usr",
        "fileHash": "6cbe55aa445f62883cc9245f1217957b82de834dec71f230b3c7add4025e4527dbf0192bf6af9a3e329bf489dede1360755a4518f7e1ca4bac66daa900040f76"
      },
      "expiry": 1630627672239
    },
    "/usr/bin/python2.7.v3": {
      "data": {
        "architecture": 3,
        "path": "/usr/bin/python2.7",
        "version": {
          "options": {
            "loose": false,
            "includePrerelease": false
          },
          "loose": false,
          "raw": "2.7.18-final",
          "major": 2,
          "minor": 7,
          "patch": 18,
          "prerelease": [
            "final"
          ],
          "build": [],
          "version": "2.7.18-final"
        },
        "sysPrefix": "/usr",
        "fileHash": "6cbe55aa445f62883cc9245f1217957b82de834dec71f230b3c7add4025e4527dbf0192bf6af9a3e329bf489dede1360755a4518f7e1ca4bac66daa900040f76"
      },
      "expiry": 1630627672246
    },
    "/usr/bin/python2.v3": {
      "data": {
        "architecture": 3,
        "path": "/usr/bin/python2",
        "version": {
          "options": {
            "loose": false,
            "includePrerelease": false
          },
          "loose": false,
          "raw": "2.7.18-final",
          "major": 2,
          "minor": 7,
          "patch": 18,
          "prerelease": [
            "final"
          ],
          "build": [],
          "version": "2.7.18-final"
        },
        "sysPrefix": "/usr",
        "fileHash": "6cbe55aa445f62883cc9245f1217957b82de834dec71f230b3c7add4025e4527dbf0192bf6af9a3e329bf489dede1360755a4518f7e1ca4bac66daa900040f76"
      },
      "expiry": 1630627672357
    },
    "/sbin/python2.7.v3": {
      "data": {
        "architecture": 3,
        "path": "/sbin/python2.7",
        "version": {
          "options": {
            "loose": false,
            "includePrerelease": false
          },
          "loose": false,
          "raw": "2.7.18-final",
          "major": 2,
          "minor": 7,
          "patch": 18,
          "prerelease": [
            "final"
          ],
          "build": [],
          "version": "2.7.18-final"
        },
        "sysPrefix": "/usr",
        "fileHash": "6cbe55aa445f62883cc9245f1217957b82de834dec71f230b3c7add4025e4527dbf0192bf6af9a3e329bf489dede1360755a4518f7e1ca4bac66daa900040f76"
      },
      "expiry": 1630627672196
    },
    "/usr/bin/python2.interpreter.displayName.v7": {
      "data": {
        "displayName": "Python 2.7.18 64-bit",
        "hash": "6cbe55aa445f62883cc9245f1217957b82de834dec71f230b3c7add4025e4527dbf0192bf6af9a3e329bf489dede1360755a4518f7e1ca4bac66daa900040f76-55d92ff42c6378e6f8fcadc305bd105a"
      },
      "expiry": 1630630923465
    },
    "/bin/python2.interpreter.displayName.v7": {
      "data": {
        "displayName": "Python 2.7.18 64-bit",
        "hash": "6cbe55aa445f62883cc9245f1217957b82de834dec71f230b3c7add4025e4527dbf0192bf6af9a3e329bf489dede1360755a4518f7e1ca4bac66daa900040f76-63120e05e615ecddd94b570cd30547dc"
      },
      "expiry": 1630630923470
    },
    "/usr/sbin/python2.interpreter.displayName.v7": {
      "data": {
        "displayName": "Python 2.7.18 64-bit",
        "hash": "6cbe55aa445f62883cc9245f1217957b82de834dec71f230b3c7add4025e4527dbf0192bf6af9a3e329bf489dede1360755a4518f7e1ca4bac66daa900040f76-a64042f477081a2aec7dc0fe508e399e"
      },
      "expiry": 1630630923479
    },
    "/sbin/python2.interpreter.displayName.v7": {
      "data": {
        "displayName": "Python 2.7.18 64-bit",
        "hash": "6cbe55aa445f62883cc9245f1217957b82de834dec71f230b3c7add4025e4527dbf0192bf6af9a3e329bf489dede1360755a4518f7e1ca4bac66daa900040f76-f5632d52c0545205cc12baf1e7ac32ee"
      },
      "expiry": 1630630923484
    },
    "/usr/bin/python2.interpreter.Details.v7": {
      "data": {
        "fileHash": "6cbe55aa445f62883cc9245f1217957b82de834dec71f230b3c7add4025e4527dbf0192bf6af9a3e329bf489dede1360755a4518f7e1ca4bac66daa900040f76",
        "info": {
          "architecture": 3,
          "path": "/usr/bin/python2",
          "version": {
            "options": {
              "loose": false,
              "includePrerelease": false
            },
            "loose": false,
            "raw": "2.7.18-final",
            "major": 2,
            "minor": 7,
            "patch": 18,
            "prerelease": [
              "final"
            ],
            "build": [],
            "version": "2.7.18-final"
          },
          "sysPrefix": "/usr",
          "fileHash": "6cbe55aa445f62883cc9245f1217957b82de834dec71f230b3c7add4025e4527dbf0192bf6af9a3e329bf489dede1360755a4518f7e1ca4bac66daa900040f76",
          "type": "Unknown",
          "displayName": "Python 2.7.18 64-bit"
        }
      },
      "expiry": 1630630923520
    },
    "/bin/python2.interpreter.Details.v7": {
      "data": {
        "fileHash": "6cbe55aa445f62883cc9245f1217957b82de834dec71f230b3c7add4025e4527dbf0192bf6af9a3e329bf489dede1360755a4518f7e1ca4bac66daa900040f76",
        "info": {
          "architecture": 3,
          "path": "/bin/python2",
          "version": {
            "options": {
              "loose": false,
              "includePrerelease": false
            },
            "loose": false,
            "raw": "2.7.18-final",
            "major": 2,
            "minor": 7,
            "patch": 18,
            "prerelease": [
              "final"
            ],
            "build": [],
            "version": "2.7.18-final"
          },
          "sysPrefix": "/usr",
          "fileHash": "6cbe55aa445f62883cc9245f1217957b82de834dec71f230b3c7add4025e4527dbf0192bf6af9a3e329bf489dede1360755a4518f7e1ca4bac66daa900040f76",
          "type": "Unknown",
          "displayName": "Python 2.7.18 64-bit"
        }
      },
      "expiry": 1630630923533
    },
    "/usr/sbin/python2.interpreter.Details.v7": {
      "data": {
        "fileHash": "6cbe55aa445f62883cc9245f1217957b82de834dec71f230b3c7add4025e4527dbf0192bf6af9a3e329bf489dede1360755a4518f7e1ca4bac66daa900040f76",
        "info": {
          "architecture": 3,
          "path": "/usr/sbin/python2",
          "version": {
            "options": {
              "loose": false,
              "includePrerelease": false
            },
            "loose": false,
            "raw": "2.7.18-final",
            "major": 2,
            "minor": 7,
            "patch": 18,
            "prerelease": [
              "final"
            ],
            "build": [],
            "version": "2.7.18-final"
          },
          "sysPrefix": "/usr",
          "fileHash": "6cbe55aa445f62883cc9245f1217957b82de834dec71f230b3c7add4025e4527dbf0192bf6af9a3e329bf489dede1360755a4518f7e1ca4bac66daa900040f76",
          "type": "Unknown",
          "displayName": "Python 2.7.18 64-bit"
        }
      },
      "expiry": 1630630923541
    },
    "/sbin/python2.interpreter.Details.v7": {
      "data": {
        "fileHash": "6cbe55aa445f62883cc9245f1217957b82de834dec71f230b3c7add4025e4527dbf0192bf6af9a3e329bf489dede1360755a4518f7e1ca4bac66daa900040f76",
        "info": {
          "architecture": 3,
          "path": "/sbin/python2",
          "version": {
            "options": {
              "loose": false,
              "includePrerelease": false
            },
            "loose": false,
            "raw": "2.7.18-final",
            "major": 2,
            "minor": 7,
            "patch": 18,
            "prerelease": [
              "final"
            ],
            "build": [],
            "version": "2.7.18-final"
          },
          "sysPrefix": "/usr",
          "fileHash": "6cbe55aa445f62883cc9245f1217957b82de834dec71f230b3c7add4025e4527dbf0192bf6af9a3e329bf489dede1360755a4518f7e1ca4bac66daa900040f76",
          "type": "Unknown",
          "displayName": "Python 2.7.18 64-bit"
        }
      },
      "expiry": 1630630923550
    },
    "/usr/sbin/python3.9.v3": {
      "data": {
        "architecture": 3,
        "path": "/usr/sbin/python3.9",
        "version": {
          "options": {
            "loose": false,
            "includePrerelease": false
          },
          "loose": false,
          "raw": "3.9.6-final",
          "major": 3,
          "minor": 9,
          "patch": 6,
          "prerelease": [
            "final"
          ],
          "build": [],
          "version": "3.9.6-final"
        },
        "sysPrefix": "/usr",
        "fileHash": "fb930abca3d3e41a46b99df8d6c71e6e5f51db51fcd74daf8d087344d0aba9be92079eb919f40169bdb9ae96ebff4c9cecce9eba8ed615e6f196371ccca5db40"
      },
      "expiry": 1630627672203
    },
    "/bin/python3.9.v3": {
      "data": {
        "architecture": 3,
        "path": "/bin/python3.9",
        "version": {
          "options": {
            "loose": false,
            "includePrerelease": false
          },
          "loose": false,
          "raw": "3.9.6-final",
          "major": 3,
          "minor": 9,
          "patch": 6,
          "prerelease": [
            "final"
          ],
          "build": [],
          "version": "3.9.6-final"
        },
        "sysPrefix": "/usr",
        "fileHash": "fb930abca3d3e41a46b99df8d6c71e6e5f51db51fcd74daf8d087344d0aba9be92079eb919f40169bdb9ae96ebff4c9cecce9eba8ed615e6f196371ccca5db40"
      },
      "expiry": 1630627672233
    },
    "/usr/bin/python3.9.v3": {
      "data": {
        "architecture": 3,
        "path": "/usr/bin/python3.9",
        "version": {
          "options": {
            "loose": false,
            "includePrerelease": false
          },
          "loose": false,
          "raw": "3.9.6-final",
          "major": 3,
          "minor": 9,
          "patch": 6,
          "prerelease": [
            "final"
          ],
          "build": [],
          "version": "3.9.6-final"
        },
        "sysPrefix": "/usr",
        "fileHash": "fb930abca3d3e41a46b99df8d6c71e6e5f51db51fcd74daf8d087344d0aba9be92079eb919f40169bdb9ae96ebff4c9cecce9eba8ed615e6f196371ccca5db40"
      },
      "expiry": 1630627672242
    },
    "/sbin/python3.9.v3": {
      "data": {
        "architecture": 3,
        "path": "/sbin/python3.9",
        "version": {
          "options": {
            "loose": false,
            "includePrerelease": false
          },
          "loose": false,
          "raw": "3.9.6-final",
          "major": 3,
          "minor": 9,
          "patch": 6,
          "prerelease": [
            "final"
          ],
          "build": [],
          "version": "3.9.6-final"
        },
        "sysPrefix": "/usr",
        "fileHash": "fb930abca3d3e41a46b99df8d6c71e6e5f51db51fcd74daf8d087344d0aba9be92079eb919f40169bdb9ae96ebff4c9cecce9eba8ed615e6f196371ccca5db40"
      },
      "expiry": 1630627672191
    }
  },
  "coc-python|/home/adminabs/.config/qtile": {
    "INTERPRETERS_CACHE_v3_PipEnvService:ca21d6da924c42ab73be5558417f6436": [],
    "INTERPRETERS_CACHE_v3_WorkspaceVirtualEnvService:ca21d6da924c42ab73be5558417f6436": [],
    "autoSelectedWorkspacePythonInterpreter-/home/adminabs/.config/qtile": {
      "architecture": 3,
      "path": "/usr/bin/python",
      "version": {
        "options": {
          "loose": false,
          "includePrerelease": false
        },
        "loose": false,
        "raw": "3.8.6-final",
        "major": 3,
        "minor": 8,
        "patch": 6,
        "prerelease": [
          "final"
        ],
        "build": [],
        "version": "3.8.6-final"
      },
      "sysPrefix": "/usr",
      "fileHash": "c57858455485c5a225558252d420b64e7d4e91ba51fa3d14b7f053ac05ffd3009417ea65b33db1023319121011e33f5805bed975bff82344c33b9e41bcdf3baa",
      "type": "Unknown"
    },
    "INTERPRETERS_CACHE_v3_PipEnvService": [],
    "INTERPRETERS_CACHE_v3_WorkspaceVirtualEnvService": []
  },
  "coc-python|/home/adminabs/.config/qtile/settings": {
    "INTERPRETERS_CACHE_v3_PipEnvService:02e20cfe40396704cce47882b26cda20": [],
    "INTERPRETERS_CACHE_v3_WorkspaceVirtualEnvService:02e20cfe40396704cce47882b26cda20": [],
    "autoSelectedWorkspacePythonInterpreter-/home/adminabs/.config/qtile/settings": {
      "architecture": 3,
      "path": "/usr/bin/python",
      "version": {
        "options": {
          "loose": false,
          "includePrerelease": false
        },
        "loose": false,
        "raw": "3.8.6-final",
        "major": 3,
        "minor": 8,
        "patch": 6,
        "prerelease": [
          "final"
        ],
        "build": [],
        "version": "3.8.6-final"
      },
      "sysPrefix": "/usr",
      "fileHash": "c57858455485c5a225558252d420b64e7d4e91ba51fa3d14b7f053ac05ffd3009417ea65b33db1023319121011e33f5805bed975bff82344c33b9e41bcdf3baa",
      "type": "Unknown"
    },
    "INTERPRETERS_CACHE_v3_PipEnvService": [],
    "INTERPRETERS_CACHE_v3_WorkspaceVirtualEnvService": []
  },
  "coc-python|/home/adminabs": {
    "INTERPRETERS_CACHE_v3_WorkspaceVirtualEnvService": [],
    "INTERPRETERS_CACHE_v3_PipEnvService": []
  },
  "coc-python|/home/adminabs/.config/fish": {
    "INTERPRETERS_CACHE_v3_PipEnvService:63326b8079c2e91a3f4b8272341cb863": [],
    "INTERPRETERS_CACHE_v3_WorkspaceVirtualEnvService:63326b8079c2e91a3f4b8272341cb863": [],
    "autoSelectedWorkspacePythonInterpreter-/home/adminabs/.config/fish": {
      "architecture": 3,
      "path": "/usr/bin/python",
      "version": {
        "options": {
          "loose": false,
          "includePrerelease": false
        },
        "loose": false,
        "raw": "3.8.6-final",
        "major": 3,
        "minor": 8,
        "patch": 6,
        "prerelease": [
          "final"
        ],
        "build": [],
        "version": "3.8.6-final"
      },
      "sysPrefix": "/usr",
      "fileHash": "c57858455485c5a225558252d420b64e7d4e91ba51fa3d14b7f053ac05ffd3009417ea65b33db1023319121011e33f5805bed975bff82344c33b9e41bcdf3baa",
      "type": "Unknown"
    },
    "INTERPRETERS_CACHE_v3_PipEnvService": [],
    "INTERPRETERS_CACHE_v3_WorkspaceVirtualEnvService": []
  },
  "coc-python|/home/adminabs/Documents": {
    "INTERPRETERS_CACHE_v3_PipEnvService:ec39c3547208b779f62c2be582167a40": [],
    "INTERPRETERS_CACHE_v3_WorkspaceVirtualEnvService:ec39c3547208b779f62c2be582167a40": [],
    "autoSelectedWorkspacePythonInterpreter-/home/adminabs/Documents": {
      "architecture": 3,
      "path": "/usr/bin/python",
      "version": {
        "options": {
          "loose": false,
          "includePrerelease": false
        },
        "loose": false,
        "raw": "3.8.6-final",
        "major": 3,
        "minor": 8,
        "patch": 6,
        "prerelease": [
          "final"
        ],
        "build": [],
        "version": "3.8.6-final"
      },
      "sysPrefix": "/usr",
      "fileHash": "c57858455485c5a225558252d420b64e7d4e91ba51fa3d14b7f053ac05ffd3009417ea65b33db1023319121011e33f5805bed975bff82344c33b9e41bcdf3baa",
      "type": "Unknown"
    },
    "INTERPRETERS_CACHE_v3_PipEnvService": [],
    "INTERPRETERS_CACHE_v3_WorkspaceVirtualEnvService": []
  },
  "coc-python|/home/adminabs/.config/ranger/plugins": {
    "INTERPRETERS_CACHE_v3_PipEnvService:b910fb5c0d782326ad2fe6917d30de5e": [],
    "INTERPRETERS_CACHE_v3_WorkspaceVirtualEnvService:b910fb5c0d782326ad2fe6917d30de5e": [],
    "autoSelectedWorkspacePythonInterpreter-/home/adminabs/.config/ranger/plugins": {
      "architecture": 3,
      "path": "/usr/bin/python",
      "version": {
        "options": {
          "loose": false,
          "includePrerelease": false
        },
        "loose": false,
        "raw": "3.8.6-final",
        "major": 3,
        "minor": 8,
        "patch": 6,
        "prerelease": [
          "final"
        ],
        "build": [],
        "version": "3.8.6-final"
      },
      "sysPrefix": "/usr",
      "fileHash": "c57858455485c5a225558252d420b64e7d4e91ba51fa3d14b7f053ac05ffd3009417ea65b33db1023319121011e33f5805bed975bff82344c33b9e41bcdf3baa",
      "type": "Unknown"
    },
    "INTERPRETERS_CACHE_v3_PipEnvService": [],
    "INTERPRETERS_CACHE_v3_WorkspaceVirtualEnvService": []
  },
  "coc-python|/home/adminabs/scripts/auto_manual_py": {
    "INTERPRETERS_CACHE_v3_PipEnvService:099f1706c2ea7c870e50c8c1f74cc0ca": [],
    "INTERPRETERS_CACHE_v3_WorkspaceVirtualEnvService:099f1706c2ea7c870e50c8c1f74cc0ca": [],
    "autoSelectedWorkspacePythonInterpreter-/home/adminabs/scripts/auto_manual_py": {
      "architecture": 3,
      "path": "/sbin/python",
      "version": {
        "options": {
          "loose": false,
          "includePrerelease": false
        },
        "loose": false,
        "raw": "3.9.1-final",
        "major": 3,
        "minor": 9,
        "patch": 1,
        "prerelease": [
          "final"
        ],
        "build": [],
        "version": "3.9.1-final"
      },
      "sysPrefix": "/usr",
      "fileHash": "944ed05b14842f9f05e0f257da1e3f1e87a6291644b806bb188d425d3a877c0449d324f318d42e8f897a3d1b063618a4dc311d9c1da4e0f489ebbf07736a4a13",
      "type": "Unknown",
      "displayName": "Python 3.9.1 64-bit"
    },
    "INTERPRETERS_CACHE_v3_PipEnvService": [],
    "INTERPRETERS_CACHE_v3_WorkspaceVirtualEnvService": []
  },
  "coc-python|/home/adminabs/scripts": {
    "INTERPRETERS_CACHE_v3_PipEnvService:4b5db1e1e2281ade6c933d755230b96d": [],
    "INTERPRETERS_CACHE_v3_WorkspaceVirtualEnvService:4b5db1e1e2281ade6c933d755230b96d": [],
    "autoSelectedWorkspacePythonInterpreter-/home/adminabs/scripts": {
      "architecture": 3,
      "path": "/sbin/python",
      "version": {
        "options": {
          "loose": false,
          "includePrerelease": false
        },
        "loose": false,
        "raw": "3.9.1-final",
        "major": 3,
        "minor": 9,
        "patch": 1,
        "prerelease": [
          "final"
        ],
        "build": [],
        "version": "3.9.1-final"
      },
      "sysPrefix": "/usr",
      "fileHash": "944ed05b14842f9f05e0f257da1e3f1e87a6291644b806bb188d425d3a877c0449d324f318d42e8f897a3d1b063618a4dc311d9c1da4e0f489ebbf07736a4a13",
      "type": "Unknown",
      "displayName": "Python 3.9.1 64-bit"
    },
    "INTERPRETERS_CACHE_v3_PipEnvService": [],
    "INTERPRETERS_CACHE_v3_WorkspaceVirtualEnvService": []
  },
  "coc-python|/home/adminabs/Documents/ranger/ranger/config": {
    "INTERPRETERS_CACHE_v3_PipEnvService:ffb6ce095c5844f5e6d73fd8274ba35b": [],
    "INTERPRETERS_CACHE_v3_WorkspaceVirtualEnvService:ffb6ce095c5844f5e6d73fd8274ba35b": [],
    "autoSelectedWorkspacePythonInterpreter-/home/adminabs/Documents/ranger/ranger/config": {
      "architecture": 3,
      "path": "/sbin/python",
      "version": {
        "options": {
          "loose": false,
          "includePrerelease": false
        },
        "loose": false,
        "raw": "3.9.1-final",
        "major": 3,
        "minor": 9,
        "patch": 1,
        "prerelease": [
          "final"
        ],
        "build": [],
        "version": "3.9.1-final"
      },
      "sysPrefix": "/usr",
      "fileHash": "944ed05b14842f9f05e0f257da1e3f1e87a6291644b806bb188d425d3a877c0449d324f318d42e8f897a3d1b063618a4dc311d9c1da4e0f489ebbf07736a4a13",
      "type": "Unknown",
      "displayName": "Python 3.9.1 64-bit"
    },
    "INTERPRETERS_CACHE_v3_PipEnvService": [],
    "INTERPRETERS_CACHE_v3_WorkspaceVirtualEnvService": []
  },
  "coc-python|/home/adminabs/Documents/ranger/ranger/core": {
    "INTERPRETERS_CACHE_v3_PipEnvService:256ada2aa7cf7f4e69db461cb7124cfd": [],
    "INTERPRETERS_CACHE_v3_WorkspaceVirtualEnvService:256ada2aa7cf7f4e69db461cb7124cfd": [],
    "autoSelectedWorkspacePythonInterpreter-/home/adminabs/Documents/ranger/ranger/core": {
      "architecture": 3,
      "path": "/sbin/python",
      "version": {
        "options": {
          "loose": false,
          "includePrerelease": false
        },
        "loose": false,
        "raw": "3.9.1-final",
        "major": 3,
        "minor": 9,
        "patch": 1,
        "prerelease": [
          "final"
        ],
        "build": [],
        "version": "3.9.1-final"
      },
      "sysPrefix": "/usr",
      "fileHash": "944ed05b14842f9f05e0f257da1e3f1e87a6291644b806bb188d425d3a877c0449d324f318d42e8f897a3d1b063618a4dc311d9c1da4e0f489ebbf07736a4a13",
      "type": "Unknown",
      "displayName": "Python 3.9.1 64-bit"
    },
    "INTERPRETERS_CACHE_v3_PipEnvService": [],
    "INTERPRETERS_CACHE_v3_WorkspaceVirtualEnvService": []
  },
  "coc-python|/home/adminabs/Documents/ranger/ranger/gui": {
    "INTERPRETERS_CACHE_v3_PipEnvService:32a319709d5b8f0433f9fdb387ec7200": [],
    "INTERPRETERS_CACHE_v3_WorkspaceVirtualEnvService:32a319709d5b8f0433f9fdb387ec7200": [],
    "autoSelectedWorkspacePythonInterpreter-/home/adminabs/Documents/ranger/ranger/gui": {
      "architecture": 3,
      "path": "/sbin/python",
      "version": {
        "options": {
          "loose": false,
          "includePrerelease": false
        },
        "loose": false,
        "raw": "3.9.1-final",
        "major": 3,
        "minor": 9,
        "patch": 1,
        "prerelease": [
          "final"
        ],
        "build": [],
        "version": "3.9.1-final"
      },
      "sysPrefix": "/usr",
      "fileHash": "944ed05b14842f9f05e0f257da1e3f1e87a6291644b806bb188d425d3a877c0449d324f318d42e8f897a3d1b063618a4dc311d9c1da4e0f489ebbf07736a4a13",
      "type": "Unknown",
      "displayName": "Python 3.9.1 64-bit"
    },
    "INTERPRETERS_CACHE_v3_PipEnvService": [],
    "INTERPRETERS_CACHE_v3_WorkspaceVirtualEnvService": []
  },
  "coc-python|/home/adminabs/scripts/word_guesser": {
    "INTERPRETERS_CACHE_v3_PipEnvService:3e268b76e3cebe5b0086d385402860cf": [],
    "INTERPRETERS_CACHE_v3_WorkspaceVirtualEnvService:3e268b76e3cebe5b0086d385402860cf": [],
    "autoSelectedWorkspacePythonInterpreter-/home/adminabs/scripts/word_guesser": {
      "architecture": 3,
      "path": "/sbin/python",
      "version": {
        "options": {
          "loose": false,
          "includePrerelease": false
        },
        "loose": false,
        "raw": "3.9.1-final",
        "major": 3,
        "minor": 9,
        "patch": 1,
        "prerelease": [
          "final"
        ],
        "build": [],
        "version": "3.9.1-final"
      },
      "sysPrefix": "/usr",
      "fileHash": "7ec61baf8d8fd978dda4d06bc35d6bc3c4513051f1011e1afd569567eb2bbfe971c28845582d824861a4f57e32e72f6e2ac842f58b398c56296a057f6eeac640",
      "type": "Unknown",
      "displayName": "Python 3.9.1 64-bit"
    },
    "INTERPRETERS_CACHE_v3_PipEnvService": [],
    "INTERPRETERS_CACHE_v3_WorkspaceVirtualEnvService": []
  },
  "coc-python|/home/adminabs/scripts/basic_password_generator": {
    "INTERPRETERS_CACHE_v3_PipEnvService:bec8f6d43fbcb7ad658259ce672f9db2": [],
    "INTERPRETERS_CACHE_v3_WorkspaceVirtualEnvService:bec8f6d43fbcb7ad658259ce672f9db2": [],
    "autoSelectedWorkspacePythonInterpreter-/home/adminabs/scripts/basic_password_generator": {
      "architecture": 3,
      "path": "/sbin/python",
      "version": {
        "options": {
          "loose": false,
          "includePrerelease": false
        },
        "loose": false,
        "raw": "3.9.1-final",
        "major": 3,
        "minor": 9,
        "patch": 1,
        "prerelease": [
          "final"
        ],
        "build": [],
        "version": "3.9.1-final"
      },
      "sysPrefix": "/usr",
      "fileHash": "7ec61baf8d8fd978dda4d06bc35d6bc3c4513051f1011e1afd569567eb2bbfe971c28845582d824861a4f57e32e72f6e2ac842f58b398c56296a057f6eeac640",
      "type": "Unknown",
      "displayName": "Python 3.9.1 64-bit"
    },
    "INTERPRETERS_CACHE_v3_PipEnvService": [],
    "INTERPRETERS_CACHE_v3_WorkspaceVirtualEnvService": [],
    "INTERPRETERS_CACHE_v3_PipEnvService:e5f4e1e6ff6066e30a618eba04203fa4": [],
    "INTERPRETERS_CACHE_v3_WorkspaceVirtualEnvService:e5f4e1e6ff6066e30a618eba04203fa4": [],
    "INTERPRETERS_CACHE_v3_PipEnvService:edf04c53def4ea9341da345227a6cb76": [],
    "INTERPRETERS_CACHE_v3_WorkspaceVirtualEnvService:edf04c53def4ea9341da345227a6cb76": []
  },
  "coc-python|/run/media/adminabs/Cofre Arturo/VisualStudioCode/LearningSelenium": {
    "INTERPRETERS_CACHE_v3_PipEnvService:786e61811dd06978e1a1660980428079": [],
    "INTERPRETERS_CACHE_v3_WorkspaceVirtualEnvService:786e61811dd06978e1a1660980428079": [],
    "autoSelectedWorkspacePythonInterpreter-/run/media/adminabs/Cofre Arturo/VisualStudioCode/LearningSelenium": {
      "architecture": 3,
      "path": "/sbin/python",
      "version": {
        "options": {
          "loose": false,
          "includePrerelease": false
        },
        "loose": false,
        "raw": "3.9.1-final",
        "major": 3,
        "minor": 9,
        "patch": 1,
        "prerelease": [
          "final"
        ],
        "build": [],
        "version": "3.9.1-final"
      },
      "sysPrefix": "/usr",
      "fileHash": "7ec61baf8d8fd978dda4d06bc35d6bc3c4513051f1011e1afd569567eb2bbfe971c28845582d824861a4f57e32e72f6e2ac842f58b398c56296a057f6eeac640",
      "type": "Unknown",
      "displayName": "Python 3.9.1 64-bit"
    },
    "INTERPRETERS_CACHE_v3_PipEnvService": [],
    "INTERPRETERS_CACHE_v3_WorkspaceVirtualEnvService": []
  },
  "coc-python|/tmp": {
    "INTERPRETERS_CACHE_v3_PipEnvService:d42b9c57d24cf5db3bd8d332dc35437f": [],
    "INTERPRETERS_CACHE_v3_WorkspaceVirtualEnvService:d42b9c57d24cf5db3bd8d332dc35437f": [],
    "autoSelectedWorkspacePythonInterpreter-/tmp": {
      "architecture": 3,
      "path": "/sbin/python",
      "version": {
        "options": {
          "loose": false,
          "includePrerelease": false
        },
        "loose": false,
        "raw": "3.9.1-final",
        "major": 3,
        "minor": 9,
        "patch": 1,
        "prerelease": [
          "final"
        ],
        "build": [],
        "version": "3.9.1-final"
      },
      "sysPrefix": "/usr",
      "fileHash": "7ec61baf8d8fd978dda4d06bc35d6bc3c4513051f1011e1afd569567eb2bbfe971c28845582d824861a4f57e32e72f6e2ac842f58b398c56296a057f6eeac640",
      "type": "Unknown",
      "displayName": "Python 3.9.1 64-bit"
    },
    "INTERPRETERS_CACHE_v3_PipEnvService": [],
    "INTERPRETERS_CACHE_v3_WorkspaceVirtualEnvService": [],
    "INTERPRETERS_CACHE_v3_PipEnvService:edf04c53def4ea9341da345227a6cb76": [],
    "INTERPRETERS_CACHE_v3_WorkspaceVirtualEnvService:edf04c53def4ea9341da345227a6cb76": []
  },
  "coc-python|/home/adminabs/test": {
    "INTERPRETERS_CACHE_v3_PipEnvService:9eeb468b7bbdbe54107a8a24385a6316": [],
    "INTERPRETERS_CACHE_v3_WorkspaceVirtualEnvService:9eeb468b7bbdbe54107a8a24385a6316": [],
    "autoSelectedWorkspacePythonInterpreter-/home/adminabs/test": {
      "architecture": 3,
      "path": "/sbin/python",
      "version": {
        "options": {
          "loose": false,
          "includePrerelease": false
        },
        "loose": false,
        "raw": "3.9.1-final",
        "major": 3,
        "minor": 9,
        "patch": 1,
        "prerelease": [
          "final"
        ],
        "build": [],
        "version": "3.9.1-final"
      },
      "sysPrefix": "/usr",
      "fileHash": "7ec61baf8d8fd978dda4d06bc35d6bc3c4513051f1011e1afd569567eb2bbfe971c28845582d824861a4f57e32e72f6e2ac842f58b398c56296a057f6eeac640",
      "type": "Unknown",
      "displayName": "Python 3.9.1 64-bit"
    },
    "INTERPRETERS_CACHE_v3_PipEnvService": [],
    "INTERPRETERS_CACHE_v3_WorkspaceVirtualEnvService": []
  },
  "coc-python|/home/adminabs/Documents/different_people-s_configs/DerekTailor": {
    "INTERPRETERS_CACHE_v3_PipEnvService:65562da6be33a1622ab087da02799ff0": [],
    "INTERPRETERS_CACHE_v3_WorkspaceVirtualEnvService:65562da6be33a1622ab087da02799ff0": [],
    "autoSelectedWorkspacePythonInterpreter-/home/adminabs/Documents/different_people-s_configs/DerekTailor": {
      "architecture": 3,
      "path": "/sbin/python",
      "version": {
        "options": {
          "loose": false,
          "includePrerelease": false
        },
        "loose": false,
        "raw": "3.9.2-final",
        "major": 3,
        "minor": 9,
        "patch": 2,
        "prerelease": [
          "final"
        ],
        "build": [],
        "version": "3.9.2-final"
      },
      "sysPrefix": "/usr",
      "fileHash": "1f7889e156ad775617ea523f8c191c6a8044e850a104004a3f329aeacb7ca12007ef93bb19636ad9b8bf8b997b2ee78ba8f8c11d9c75d91debc989818f257afe",
      "type": "Unknown",
      "displayName": "Python 3.9.2 64-bit"
    },
    "INTERPRETERS_CACHE_v3_PipEnvService": [],
    "INTERPRETERS_CACHE_v3_WorkspaceVirtualEnvService": []
  },
  "coc-python|/home/adminabs/Downloads/urlscan-py-1.1.4/bin": {
    "INTERPRETERS_CACHE_v3_PipEnvService:01746a4f1e38c9f208e3a96aa29a63fa": [],
    "INTERPRETERS_CACHE_v3_WorkspaceVirtualEnvService:01746a4f1e38c9f208e3a96aa29a63fa": [],
    "autoSelectedWorkspacePythonInterpreter-/home/adminabs/Downloads/urlscan-py-1.1.4/bin": {
      "architecture": 3,
      "path": "/sbin/python",
      "version": {
        "options": {
          "loose": false,
          "includePrerelease": false
        },
        "loose": false,
        "raw": "3.9.2-final",
        "major": 3,
        "minor": 9,
        "patch": 2,
        "prerelease": [
          "final"
        ],
        "build": [],
        "version": "3.9.2-final"
      },
      "sysPrefix": "/usr",
      "fileHash": "1f7889e156ad775617ea523f8c191c6a8044e850a104004a3f329aeacb7ca12007ef93bb19636ad9b8bf8b997b2ee78ba8f8c11d9c75d91debc989818f257afe",
      "type": "Unknown",
      "displayName": "Python 3.9.2 64-bit"
    },
    "INTERPRETERS_CACHE_v3_PipEnvService": [],
    "INTERPRETERS_CACHE_v3_WorkspaceVirtualEnvService": []
  },
  "coc-python|/home/adminabs/Documents/CODING/maze": {
    "INTERPRETERS_CACHE_v3_PipEnvService:090a563d2f742b1438c3291ec1bc17d7": [],
    "INTERPRETERS_CACHE_v3_WorkspaceVirtualEnvService:090a563d2f742b1438c3291ec1bc17d7": [],
    "autoSelectedWorkspacePythonInterpreter-/home/adminabs/Documents/CODING/maze": {
      "architecture": 3,
      "path": "/sbin/python",
      "version": {
        "options": {
          "loose": false,
          "includePrerelease": false
        },
        "loose": false,
        "raw": "3.9.4-final",
        "major": 3,
        "minor": 9,
        "patch": 4,
        "prerelease": [
          "final"
        ],
        "build": [],
        "version": "3.9.4-final"
      },
      "sysPrefix": "/usr",
      "fileHash": "9f4466fc862be0c5950c3f745986995891bfed48e487a2ad7dc5f26ce4048662079e973e6c15e2397721369c68504c5679325ecc1375630c35634862bcac9cd6",
      "type": "Unknown",
      "displayName": "Python 3.9.4 64-bit"
    },
    "INTERPRETERS_CACHE_v3_PipEnvService": [],
    "INTERPRETERS_CACHE_v3_WorkspaceVirtualEnvService": []
  },
  "coc-python|/home/adminabs/Documents/CODING/random_image_generator": {
    "INTERPRETERS_CACHE_v3_PipEnvService:1ab98f3dfb58ff9209c543de06910585": [],
    "INTERPRETERS_CACHE_v3_WorkspaceVirtualEnvService:1ab98f3dfb58ff9209c543de06910585": [],
    "autoSelectedWorkspacePythonInterpreter-/home/adminabs/Documents/CODING/random_image_generator": {
      "architecture": 3,
      "path": "/sbin/python",
      "version": {
        "options": {
          "loose": false,
          "includePrerelease": false
        },
        "loose": false,
        "raw": "3.9.5-final",
        "major": 3,
        "minor": 9,
        "patch": 5,
        "prerelease": [
          "final"
        ],
        "build": [],
        "version": "3.9.5-final"
      },
      "sysPrefix": "/usr",
      "fileHash": "9593e3c824aaa234d72d7275b2ebebf878e7bbb3e00e7c9379a0b395c3b6e7a37b7686f6b073006e89037e09f3b27acb58c3385b89f036113bd2c709c47ced61",
      "type": "Unknown",
      "displayName": "Python 3.9.5 64-bit"
    },
    "INTERPRETERS_CACHE_v3_PipEnvService": [],
    "INTERPRETERS_CACHE_v3_WorkspaceVirtualEnvService": []
  },
  "coc-python|/home/adminabs/Documents/LFB": {
    "INTERPRETERS_CACHE_v3_PipEnvService:f13167cc944fedaa213c790304197526": [],
    "INTERPRETERS_CACHE_v3_WorkspaceVirtualEnvService:f13167cc944fedaa213c790304197526": [],
    "autoSelectedWorkspacePythonInterpreter-/home/adminabs/Documents/LFB": {
      "architecture": 3,
      "path": "/sbin/python",
      "version": {
        "options": {
          "loose": false,
          "includePrerelease": false
        },
        "loose": false,
        "raw": "3.9.5-final",
        "major": 3,
        "minor": 9,
        "patch": 5,
        "prerelease": [
          "final"
        ],
        "build": [],
        "version": "3.9.5-final"
      },
      "sysPrefix": "/usr",
      "fileHash": "9593e3c824aaa234d72d7275b2ebebf878e7bbb3e00e7c9379a0b395c3b6e7a37b7686f6b073006e89037e09f3b27acb58c3385b89f036113bd2c709c47ced61",
      "type": "Unknown",
      "displayName": "Python 3.9.5 64-bit"
    },
    "INTERPRETERS_CACHE_v3_PipEnvService": [],
    "INTERPRETERS_CACHE_v3_WorkspaceVirtualEnvService": []
  },
  "coc-python|/home/adminabs/Documents/different_people-s_configs/OTB": {
    "INTERPRETERS_CACHE_v3_PipEnvService:a479be9ea87bd8b790b581933030e726": [],
    "INTERPRETERS_CACHE_v3_WorkspaceVirtualEnvService:a479be9ea87bd8b790b581933030e726": [],
    "autoSelectedWorkspacePythonInterpreter-/home/adminabs/Documents/different_people-s_configs/OTB": {
      "architecture": 3,
      "path": "/sbin/python",
      "version": {
        "options": {
          "loose": false,
          "includePrerelease": false
        },
        "loose": false,
        "raw": "3.9.5-final",
        "major": 3,
        "minor": 9,
        "patch": 5,
        "prerelease": [
          "final"
        ],
        "build": [],
        "version": "3.9.5-final"
      },
      "sysPrefix": "/usr",
      "fileHash": "cdf51ae99f46d4acec79e22b7f1cd1e5f4b9ce9a111ced7e2816b0d4af4e5fdd3ab86fadd6a114c96bfedbc5ce5cc6d528d513c324dcaf00fdcb7b3e75422b48",
      "type": "Unknown",
      "displayName": "Python 3.9.5 64-bit"
    },
    "INTERPRETERS_CACHE_v3_PipEnvService": [],
    "INTERPRETERS_CACHE_v3_WorkspaceVirtualEnvService": [],
    "INTERPRETERS_CACHE_v3_PipEnvService:02e20cfe40396704cce47882b26cda20": [],
    "INTERPRETERS_CACHE_v3_WorkspaceVirtualEnvService:02e20cfe40396704cce47882b26cda20": [],
    "INTERPRETERS_CACHE_v3_PipEnvService:ca21d6da924c42ab73be5558417f6436": [],
    "INTERPRETERS_CACHE_v3_WorkspaceVirtualEnvService:ca21d6da924c42ab73be5558417f6436": []
  },
  "coc-python|/home/adminabs/Documents/different_people-s_configs/antoniosarosi/dotfiles": {
    "INTERPRETERS_CACHE_v3_PipEnvService:58e07f4d5132b0632b65004d71fb430b": [],
    "INTERPRETERS_CACHE_v3_WorkspaceVirtualEnvService:58e07f4d5132b0632b65004d71fb430b": [],
    "autoSelectedWorkspacePythonInterpreter-/home/adminabs/Documents/different_people-s_configs/antoniosarosi/dotfiles": {
      "architecture": 3,
      "path": "/sbin/python",
      "version": {
        "options": {
          "loose": false,
          "includePrerelease": false
        },
        "loose": false,
        "raw": "3.9.5-final",
        "major": 3,
        "minor": 9,
        "patch": 5,
        "prerelease": [
          "final"
        ],
        "build": [],
        "version": "3.9.5-final"
      },
      "sysPrefix": "/usr",
      "fileHash": "cdf51ae99f46d4acec79e22b7f1cd1e5f4b9ce9a111ced7e2816b0d4af4e5fdd3ab86fadd6a114c96bfedbc5ce5cc6d528d513c324dcaf00fdcb7b3e75422b48",
      "type": "Unknown",
      "displayName": "Python 3.9.5 64-bit"
    },
    "INTERPRETERS_CACHE_v3_PipEnvService": [],
    "INTERPRETERS_CACHE_v3_WorkspaceVirtualEnvService": [],
    "INTERPRETERS_CACHE_v3_PipEnvService:65562da6be33a1622ab087da02799ff0": [],
    "INTERPRETERS_CACHE_v3_WorkspaceVirtualEnvService:65562da6be33a1622ab087da02799ff0": []
  }
}